%!PS-Adobe-3.0 EPSF-3.0
%%Creator: graphviz version 2.38.0 (20140413.2041)
%%Title: graph_name
%%Pages: 1
%%BoundingBox: 14 14 2525 261
%%EndComments
save
%%BeginProlog
/DotDict 200 dict def
DotDict begin

/setupLatin1 {
mark
/EncodingVector 256 array def
 EncodingVector 0

ISOLatin1Encoding 0 255 getinterval putinterval
EncodingVector 45 /hyphen put

% Set up ISO Latin 1 character encoding
/starnetISO {
        dup dup findfont dup length dict begin
        { 1 index /FID ne { def }{ pop pop } ifelse
        } forall
        /Encoding EncodingVector def
        currentdict end definefont
} def
/Times-Roman starnetISO def
/Times-Italic starnetISO def
/Times-Bold starnetISO def
/Times-BoldItalic starnetISO def
/Helvetica starnetISO def
/Helvetica-Oblique starnetISO def
/Helvetica-Bold starnetISO def
/Helvetica-BoldOblique starnetISO def
/Courier starnetISO def
/Courier-Oblique starnetISO def
/Courier-Bold starnetISO def
/Courier-BoldOblique starnetISO def
cleartomark
} bind def

%%BeginResource: procset graphviz 0 0
/coord-font-family /Times-Roman def
/default-font-family /Times-Roman def
/coordfont coord-font-family findfont 8 scalefont def

/InvScaleFactor 1.0 def
/set_scale {
       dup 1 exch div /InvScaleFactor exch def
       scale
} bind def

% styles
/solid { [] 0 setdash } bind def
/dashed { [9 InvScaleFactor mul dup ] 0 setdash } bind def
/dotted { [1 InvScaleFactor mul 6 InvScaleFactor mul] 0 setdash } bind def
/invis {/fill {newpath} def /stroke {newpath} def /show {pop newpath} def} bind def
/bold { 2 setlinewidth } bind def
/filled { } bind def
/unfilled { } bind def
/rounded { } bind def
/diagonals { } bind def
/tapered { } bind def

% hooks for setting color 
/nodecolor { sethsbcolor } bind def
/edgecolor { sethsbcolor } bind def
/graphcolor { sethsbcolor } bind def
/nopcolor {pop pop pop} bind def

/beginpage {	% i j npages
	/npages exch def
	/j exch def
	/i exch def
	/str 10 string def
	npages 1 gt {
		gsave
			coordfont setfont
			0 0 moveto
			(\() show i str cvs show (,) show j str cvs show (\)) show
		grestore
	} if
} bind def

/set_font {
	findfont exch
	scalefont setfont
} def

% draw text fitted to its expected width
/alignedtext {			% width text
	/text exch def
	/width exch def
	gsave
		width 0 gt {
			[] 0 setdash
			text stringwidth pop width exch sub text length div 0 text ashow
		} if
	grestore
} def

/boxprim {				% xcorner ycorner xsize ysize
		4 2 roll
		moveto
		2 copy
		exch 0 rlineto
		0 exch rlineto
		pop neg 0 rlineto
		closepath
} bind def

/ellipse_path {
	/ry exch def
	/rx exch def
	/y exch def
	/x exch def
	matrix currentmatrix
	newpath
	x y translate
	rx ry scale
	0 0 1 0 360 arc
	setmatrix
} bind def

/endpage { showpage } bind def
/showpage { } def

/layercolorseq
	[	% layer color sequence - darkest to lightest
		[0 0 0]
		[.2 .8 .8]
		[.4 .8 .8]
		[.6 .8 .8]
		[.8 .8 .8]
	]
def

/layerlen layercolorseq length def

/setlayer {/maxlayer exch def /curlayer exch def
	layercolorseq curlayer 1 sub layerlen mod get
	aload pop sethsbcolor
	/nodecolor {nopcolor} def
	/edgecolor {nopcolor} def
	/graphcolor {nopcolor} def
} bind def

/onlayer { curlayer ne {invis} if } def

/onlayers {
	/myupper exch def
	/mylower exch def
	curlayer mylower lt
	curlayer myupper gt
	or
	{invis} if
} def

/curlayer 0 def

%%EndResource
%%EndProlog
%%BeginSetup
14 default-font-family set_font
1 setmiterlimit
% /arrowlength 10 def
% /arrowwidth 5 def

% make sure pdfmark is harmless for PS-interpreters other than Distiller
/pdfmark where {pop} {userdict /pdfmark /cleartomark load put} ifelse
% make '<<' and '>>' safe on PS Level 1 devices
/languagelevel where {pop languagelevel}{1} ifelse
2 lt {
    userdict (<<) cvn ([) cvn load put
    userdict (>>) cvn ([) cvn load put
} if

%%EndSetup
setupLatin1
%%Page: 1 1
%%PageBoundingBox: 14 14 2525 261
%%PageOrientation: Portrait
0 0 1 beginpage
gsave
14 14 2511 247 boxprim clip newpath
1 1 set_scale 0 rotate 18.4 18.4 translate
0 0 1 graphcolor
newpath -4 -4 moveto
-4 242.5 lineto
2507 242.5 lineto
2507 -4 lineto
closepath fill
% userinput
gsave
0 0 0.82745 nodecolor
newpath 469 72.5 moveto
339 72.5 lineto
339 29.5 lineto
469 29.5 lineto
closepath fill
1 setlinewidth
solid
filled
0 0 0 nodecolor
newpath 469 72.5 moveto
339 72.5 lineto
339 29.5 lineto
469 29.5 lineto
closepath stroke
0 0 0 nodecolor
20 /Migu 1M set_font
355.5 46 moveto 97 (userinput) alignedtext
grestore
% ultrasoundin
gsave
0 0 0.82745 nodecolor
newpath 878 189.5 moveto
748 189.5 lineto
748 146.5 lineto
878 146.5 lineto
closepath fill
1 setlinewidth
solid
filled
0 0 0 nodecolor
newpath 878 189.5 moveto
748 189.5 lineto
748 146.5 lineto
878 146.5 lineto
closepath stroke
0 0 0 nodecolor
20 /Migu 1M set_font
748.5 163 moveto 129 (ultrasoundin) alignedtext
grestore
% userinput->ultrasoundin
gsave
1 setlinewidth
solid
0 0 0 edgecolor
newpath 469.03 61.45 moveto
531.92 72.67 630.08 92.78 712 121 curveto
728.68 126.75 746.28 134.43 761.98 141.91 curveto
stroke
0 0 0 edgecolor
newpath 760.46 145.07 moveto
770.99 146.28 lineto
763.52 138.77 lineto
closepath fill
1 setlinewidth
solid
0 0 0 edgecolor
newpath 760.46 145.07 moveto
770.99 146.28 lineto
763.52 138.77 lineto
closepath stroke
0 0 0 edgecolor
20 /Migu 1M set_font
550 149 moveto 117 (Semaphore) alignedtext
0 0 0 edgecolor
20 /Migu 1M set_font
505 127 moveto 207 ( triggerUltrasoundIn) alignedtext
grestore
% oled
gsave
0 0 0.82745 nodecolor
newpath 2164 124.5 moveto
2034 124.5 lineto
2034 81.5 lineto
2164 81.5 lineto
closepath fill
1 setlinewidth
solid
filled
0 0 0 nodecolor
newpath 2164 124.5 moveto
2034 124.5 lineto
2034 81.5 lineto
2164 81.5 lineto
closepath stroke
0 0 0 nodecolor
20 /Migu 1M set_font
2076.5 98 moveto 45 (oled) alignedtext
grestore
% userinput->oled
gsave
1 setlinewidth
solid
0 0 0 edgecolor
newpath 469.19 37.93 moveto
549.13 22.82 690.05 0 812 0 curveto
812 0 812 0 1706 0 curveto
1838.23 0 1872.15 16.42 1998 57 curveto
2014.57 62.34 2032.01 69.71 2047.6 76.98 curveto
stroke
0 0 0 edgecolor
newpath 2046.51 80.34 moveto
2057.04 81.48 lineto
2049.52 74.02 lineto
closepath fill
1 setlinewidth
solid
0 0 0 edgecolor
newpath 2046.51 80.34 moveto
2057.04 81.48 lineto
2049.52 74.02 lineto
closepath stroke
0 0 0 edgecolor
20 /Migu 1M set_font
1225.5 28 moveto 67 (Queue) alignedtext
0 0 0 edgecolor
20 /Migu 1M set_font
1173 6 moveto 172 ( OLEDTextQueue) alignedtext
grestore
% globals
gsave
0 0 0.82745 nodecolor
newpath 1324 195.5 moveto
1194 195.5 lineto
1194 152.5 lineto
1324 152.5 lineto
closepath fill
1 setlinewidth
solid
filled
0 0 0 nodecolor
newpath 1324 195.5 moveto
1194 195.5 lineto
1194 152.5 lineto
1324 152.5 lineto
closepath stroke
0 0 0 nodecolor
20 /Migu 1M set_font
1222 169 moveto 74 (globals) alignedtext
grestore
% ultrasoundin->globals
gsave
1 setlinewidth
solid
0 0 0 edgecolor
newpath 878.09 168.87 moveto
959.09 169.96 1098.24 171.84 1183.77 173 curveto
stroke
0 0 0 edgecolor
newpath 1183.89 176.5 moveto
1193.93 173.13 lineto
1183.98 169.5 lineto
closepath fill
1 setlinewidth
solid
0 0 0 edgecolor
newpath 1183.89 176.5 moveto
1193.93 173.13 lineto
1183.98 169.5 lineto
closepath stroke
0 0 0 edgecolor
20 /Migu 1M set_font
1003.5 201 moveto 44 (Int[]) alignedtext
0 0 0 edgecolor
20 /Migu 1M set_font
969.5 179 moveto 112 ( RawBuffer) alignedtext
grestore
% ultrasoundin->globals
gsave
1 setlinewidth
solid
0 0 0 edgecolor
newpath 841.94 146.39 moveto
861.07 133.02 887.64 117.09 914 110 curveto
1009.71 84.25 1040.81 86.13 1137 110 curveto
1166.12 117.23 1195.94 132.89 1218.7 146.91 curveto
stroke
0 0 0 edgecolor
newpath 1217.04 150 moveto
1227.37 152.38 lineto
1220.78 144.09 lineto
closepath fill
1 setlinewidth
solid
0 0 0 edgecolor
newpath 1217.04 150 moveto
1227.37 152.38 lineto
1220.78 144.09 lineto
closepath stroke
0 0 0 edgecolor
20 /Migu 1M set_font
1011.5 138 moveto 28 (Int) alignedtext
0 0 0 edgecolor
20 /Migu 1M set_font
914 116 moveto 223 ( currentWriteLocation) alignedtext
grestore
% ultrasoundprocessor
gsave
0 0 0.82745 nodecolor
newpath 1770 189.5 moveto
1640 189.5 lineto
1640 146.5 lineto
1770 146.5 lineto
closepath fill
1 setlinewidth
solid
filled
0 0 0 nodecolor
newpath 1770 189.5 moveto
1640 189.5 lineto
1640 146.5 lineto
1770 146.5 lineto
closepath stroke
0 0 0 nodecolor
20 /Migu 1M set_font
1650 174 moveto 110 (ultrasound) alignedtext
0 0 0 nodecolor
20 /Migu 1M set_font
1655 152 moveto 100 (processor) alignedtext
grestore
% ultrasoundprocessor->oled
gsave
1 setlinewidth
solid
0 0 0 edgecolor
newpath 1770.24 170.06 moveto
1830.09 170.46 1921.36 167.21 1998 148 curveto
2015.44 143.63 2033.63 136.35 2049.63 128.92 curveto
stroke
0 0 0 edgecolor
newpath 2051.27 132.01 moveto
2058.78 124.54 lineto
2048.25 125.7 lineto
closepath fill
1 setlinewidth
solid
0 0 0 edgecolor
newpath 2051.27 132.01 moveto
2058.78 124.54 lineto
2048.25 125.7 lineto
closepath stroke
0 0 0 edgecolor
20 /Migu 1M set_font
1868.5 198 moveto 67 (Queue) alignedtext
0 0 0 edgecolor
20 /Migu 1M set_font
1816 176 moveto 172 ( OLEDTextQueue) alignedtext
grestore
% ultrasoundprocessor->oled
gsave
1 setlinewidth
solid
0 0 0 edgecolor
newpath 1724.87 146.17 moveto
1743.3 126.68 1773.27 99.48 1806 88 curveto
1877.01 63.09 1963.7 72.06 2024.09 84.03 curveto
stroke
0 0 0 edgecolor
newpath 2023.43 87.46 moveto
2033.93 86.05 lineto
2024.84 80.61 lineto
closepath fill
1 setlinewidth
solid
0 0 0 edgecolor
newpath 2023.43 87.46 moveto
2033.93 86.05 lineto
2024.84 80.61 lineto
closepath stroke
0 0 0 edgecolor
20 /Migu 1M set_font
1868.5 116 moveto 67 (Queue) alignedtext
0 0 0 edgecolor
20 /Migu 1M set_font
1806 94 moveto 192 ( OLEDGraphQueue) alignedtext
grestore
% globals->ultrasoundprocessor
gsave
1 setlinewidth
solid
0 0 0 edgecolor
newpath 1324.09 173.13 moveto
1405.09 172.04 1544.24 170.16 1629.77 169 curveto
stroke
0 0 0 edgecolor
newpath 1629.98 172.5 moveto
1639.93 168.87 lineto
1629.89 165.5 lineto
closepath fill
1 setlinewidth
solid
0 0 0 edgecolor
newpath 1629.98 172.5 moveto
1639.93 168.87 lineto
1629.89 165.5 lineto
closepath stroke
0 0 0 edgecolor
20 /Migu 1M set_font
1470.5 201 moveto 44 (Int[]) alignedtext
0 0 0 edgecolor
20 /Migu 1M set_font
1436.5 179 moveto 112 ( RawBuffer) alignedtext
grestore
% globals->ultrasoundprocessor
gsave
1 setlinewidth
solid
0 0 0 edgecolor
newpath 1290.63 152.38 moveto
1314.13 137.2 1348.02 118.19 1381 110 curveto
1477.19 86.13 1508.29 84.25 1604 110 curveto
1626.65 116.09 1649.46 128.71 1667.57 140.63 curveto
stroke
0 0 0 edgecolor
newpath 1665.82 143.67 moveto
1676.06 146.39 lineto
1669.75 137.88 lineto
closepath fill
1 setlinewidth
solid
0 0 0 edgecolor
newpath 1665.82 143.67 moveto
1676.06 146.39 lineto
1669.75 137.88 lineto
closepath stroke
0 0 0 edgecolor
20 /Migu 1M set_font
1478.5 138 moveto 28 (Int) alignedtext
0 0 0 edgecolor
20 /Migu 1M set_font
1381 116 moveto 223 ( currentWriteLocation) alignedtext
grestore
% oledhardware
gsave
1 setlinewidth
dashed
0 0 0 nodecolor
newpath 2503 124.5 moveto
2373 124.5 lineto
2373 81.5 lineto
2503 81.5 lineto
closepath stroke
0 0 0 nodecolor
20 /Migu 1M set_font
2397 98 moveto 82 (oled-hw) alignedtext
grestore
% oled->oledhardware
gsave
1 setlinewidth
solid
0 0 0 edgecolor
newpath 2164.18 103 moveto
2220.78 103 2303.26 103 2362.7 103 curveto
stroke
0 0 0 edgecolor
newpath 2362.77 106.5 moveto
2372.77 103 lineto
2362.77 99.5 lineto
closepath fill
1 setlinewidth
solid
0 0 0 edgecolor
newpath 2362.77 106.5 moveto
2372.77 103 lineto
2362.77 99.5 lineto
closepath stroke
0 0 0 edgecolor
20 /Migu 1M set_font
2200 109 moveto 137 (Hardware API) alignedtext
grestore
% adc
gsave
1 setlinewidth
dashed
0 0 0 nodecolor
newpath 469 238.5 moveto
339 238.5 lineto
339 195.5 lineto
469 195.5 lineto
closepath stroke
0 0 0 nodecolor
20 /Migu 1M set_font
367 212 moveto 74 (adc-hw) alignedtext
grestore
% adc->ultrasoundin
gsave
1 setlinewidth
dotted
0 0 0 edgecolor
newpath 469.04 209.29 moveto
541.99 200.51 661.01 186.18 737.9 176.92 curveto
stroke
0 0 0 edgecolor
newpath 738.49 180.38 moveto
748 175.71 lineto
737.65 173.43 lineto
closepath fill
1 setlinewidth
solid
0 0 0 edgecolor
newpath 738.49 180.38 moveto
748 175.71 lineto
737.65 173.43 lineto
closepath stroke
0 0 0 edgecolor
20 /Migu 1M set_font
540 209 moveto 137 (Hardware API) alignedtext
grestore
% gpio
gsave
1 setlinewidth
dashed
0 0 0 nodecolor
newpath 130 72.5 moveto
0 72.5 lineto
0 29.5 lineto
130 29.5 lineto
closepath stroke
0 0 0 nodecolor
20 /Migu 1M set_font
24 46 moveto 82 (gpio-hw) alignedtext
grestore
% gpio->userinput
gsave
1 setlinewidth
dotted
0 0 0 edgecolor
newpath 130.18 51 moveto
186.78 51 269.26 51 328.7 51 curveto
stroke
0 0 0 edgecolor
newpath 328.77 54.5 moveto
338.77 51 lineto
328.77 47.5 lineto
closepath fill
1 setlinewidth
solid
0 0 0 edgecolor
newpath 328.77 54.5 moveto
338.77 51 lineto
328.77 47.5 lineto
closepath stroke
0 0 0 edgecolor
20 /Migu 1M set_font
166 57 moveto 137 (Hardware API) alignedtext
grestore
endpage
showpage
grestore
%%PageTrailer
%%EndPage: 1
%%Trailer
end
restore
%%EOF
